main
	__CC2DW
	UART1_Init
	Lcd_Init
		Delay_5500us
		Delay_1us
	Lcd_Cmd
		Delay_1us
		Delay_5500us
		Delay_50us
	Lcd_Out
		Lcd_Cmd
			Delay_1us
			Delay_5500us
			Delay_50us
		Lcd_Chr_CP
			Lcd_Cmd
				Delay_1us
				Delay_5500us
				Delay_50us
	UART_Data_Ready
		____DoIFC
	USART_ReceiveChar
